b'$GPGGA,052945.265,1732.9035,S,14932.8666,W,0,00,,179.9,M,0.9,M,,0000*46
$GPGSA,A,1,,,,,,,,,,,,,,,*1E
$GPRMC,052945.265,V,1732.9035,S,14932.8666,W,,,150619,,,N*76
$GPGGA,052946.265,1732.9035,S,14932.8666,W,0,00,,179.9,M,0.9,M,,0000*45
$GPGSA,A,1,,,,,,,,,,,,,,,*1E
$GPGSV,1,1,00*79
$GPRMC,052946.265,V,1732.9035,S,14932.8666,W,,,150619,,,N*75
$GPGGA,052947.265,1732.9035,S,14932.8666,W,0,00,,179.9,M,0.9,M,,0000*44
$GPGSA,A,1,,,,,,,,,,,,,,,*1E
$GPRMC,052947.265,V,1732.9035,S,14932.8666,W,,,150619,,,N*74
$GPGGA,052948.265,1732.9035,S,14932.8666,W,0,00,,179.9,M,0.9,M,,0000*4B
$GPGSA,A,1,,,,,,,,,,,,,,,*1E
$GPRMC,052948.265,V,1732.9035,S,14932.8666,W,,,150619,,,N*7B
$GPGGA,052949.265,1732.9035,S,14932.8666,W,0,00,,179.9,M,0.9,M,,0000*4A
$GPGSA,A,1,,,,,,,,,,,,,,,*1E
$GPRMC,052949.265,V,1732.9035,S,14932.8666,W,,,150619,,,N*7A
'